…
Create a single Date field for time series

``` r
data3<-data2 %>%
  mutate(date = make_date(YEAR,MONTH))
# check
data3[,c(1,3,14,15)]%>% filter(YEAR==2012,MONTH==12)
```

    ## # A tibble: 132,664 x 4
    ##     YEAR MONTH         Industry                            date      
    ##    <dbl> <int+lbl>     <chr>                               <date>    
    ##  1  2012 12 [December] Unknown                             2012-12-01
    ##  2  2012 12 [December] Unknown                             2012-12-01
    ##  3  2012 12 [December] Professional and Related Services   2012-12-01
    ##  4  2012 12 [December] Retail Trade                        2012-12-01
    ##  5  2012 12 [December] Professional and Related Services   2012-12-01
    ##  6  2012 12 [December] Retail Trade                        2012-12-01
    ##  7  2012 12 [December] Professional and Related Services   2012-12-01
    ##  8  2012 12 [December] Unknown                             2012-12-01
    ##  9  2012 12 [December] Retail Trade                        2012-12-01
    ## 10  2012 12 [December] Private Household Personal Services 2012-12-01
    ## # ... with 132,654 more rows
…
To factor in the sample weights, we created 1-or-0 variables for “Could
only find part-time work” (OFPTW) and “Part-Time Work” (PTW). This
allows individuals who fit these categories to be easily multipled by
their WTFINL weighted value.

``` r
data4<-data3 %>% mutate(OFPTW = ifelse(WHYPTLWK==60,1,0),
                 PTW = ifelse(WKSTAT==12|WKSTAT==20|WKSTAT==21|WKSTAT==22|WKSTAT==40|WKSTAT==41,1,0))

data5<-data4[,c(1:3,8,11:17)] %>% filter(PTW==1)
data6<-data5 %>% mutate(W_OFPTW = WTFINL*OFPTW, W_PTW = WTFINL*PTW)
data6[,c(6:13)] %>% filter(Industry=="Retail Trade")
```

    ## # A tibble: 847,671 x 8
    ##    WHYPTLWK                WKSTAT   Indus~1 date       OFPTW   PTW W_OFPTW W_PTW
    ##    <int+lbl>               <int+lb> <chr>   <date>     <dbl> <dbl>   <dbl> <dbl>
    ##  1 111 [Vacation/personal~ 12 [Par~ Retail~ 2005-01-01     0     1      0  2455.
    ##  2  60 [Could only find p~ 22 [Par~ Retail~ 2005-01-01     1     1   2469. 2469.
    ##  3  60 [Could only find p~ 22 [Par~ Retail~ 2005-01-01     1     1   2898. 2898.
    ##  4 123 [School/training]   41 [Par~ Retail~ 2005-01-01     0     1      0  2591.
    ##  5  71 [Retired/SS limit ~ 41 [Par~ Retail~ 2005-01-01     0     1      0  1819.
    ##  6 123 [School/training]   41 [Par~ Retail~ 2005-01-01     0     1      0  2767.
    ##  7 123 [School/training]   41 [Par~ Retail~ 2005-01-01     0     1      0  2012.
    ##  8 111 [Vacation/personal~ 12 [Par~ Retail~ 2005-01-01     0     1      0  2253.
    ##  9  80 [Full time work we~ 41 [Par~ Retail~ 2005-01-01     0     1      0  2663.
    ## 10 123 [School/training]   41 [Par~ Retail~ 2005-01-01     0     1      0  2983.
    ## # ... with 847,661 more rows, and abbreviated variable name 1: Industry
…
